Iteration: 1 | Loss: 2.533384621600666 | Training accuracy: 36.114 | Test accuracy: 37.73
Iteration: 2 | Loss: 1.5809599219075858 | Training accuracy: 47.924 | Test accuracy: 50.65
Iteration: 3 | Loss: 1.3575686954171455 | Training accuracy: 53.834 | Test accuracy: 55.89
Iteration: 4 | Loss: 1.1835304250192764 | Training accuracy: 59.916 | Test accuracy: 60.18
Iteration: 5 | Loss: 1.0387929825831557 | Training accuracy: 66.328 | Test accuracy: 66.74
Iteration: 6 | Loss: 0.9309292243569708 | Training accuracy: 69.606 | Test accuracy: 69.91
Iteration: 7 | Loss: 0.8465818479237959 | Training accuracy: 70.916 | Test accuracy: 71.62
Iteration: 8 | Loss: 0.793339543330395 | Training accuracy: 73.514 | Test accuracy: 72.87
Iteration: 9 | Loss: 0.7293233356207532 | Training accuracy: 76.142 | Test accuracy: 75.38
Iteration: 10 | Loss: 0.6698231658972132 | Training accuracy: 76.74 | Test accuracy: 75.64
Iteration: 11 | Loss: 0.6353111690877343 | Training accuracy: 79.318 | Test accuracy: 78.02
Iteration: 12 | Loss: 0.6010541191034 | Training accuracy: 79.738 | Test accuracy: 78.19
Iteration: 13 | Loss: 0.5723319478961818 | Training accuracy: 82.264 | Test accuracy: 80.37
Iteration: 14 | Loss: 0.539442334028766 | Training accuracy: 82.57 | Test accuracy: 80.69
Iteration: 15 | Loss: 0.5215279014823991 | Training accuracy: 83.26 | Test accuracy: 80.57
Iteration: 16 | Loss: 0.49485850235080475 | Training accuracy: 82.386 | Test accuracy: 80.16
Iteration: 17 | Loss: 0.47322359940280084 | Training accuracy: 85.058 | Test accuracy: 81.29
Iteration: 18 | Loss: 0.45498164310632155 | Training accuracy: 84.832 | Test accuracy: 81.52
Iteration: 19 | Loss: 0.4371989746685223 | Training accuracy: 85.144 | Test accuracy: 81.15
Iteration: 20 | Loss: 0.4212495039033768 | Training accuracy: 86.084 | Test accuracy: 81.74
Iteration: 21 | Loss: 0.4104319648898166 | Training accuracy: 87.182 | Test accuracy: 83.23
Iteration: 22 | Loss: 0.39006324512574375 | Training accuracy: 87.502 | Test accuracy: 83.22
Iteration: 23 | Loss: 0.381678727200574 | Training accuracy: 86.738 | Test accuracy: 82.0
Iteration: 24 | Loss: 0.3707393894872397 | Training accuracy: 86.67 | Test accuracy: 82.44
Iteration: 25 | Loss: 0.358693473479327 | Training accuracy: 88.43 | Test accuracy: 83.86
Iteration: 26 | Loss: 0.34464891258712926 | Training accuracy: 88.47 | Test accuracy: 83.61
Iteration: 27 | Loss: 0.342880388926667 | Training accuracy: 88.478 | Test accuracy: 83.3
Iteration: 28 | Loss: 0.33362399960113 | Training accuracy: 89.154 | Test accuracy: 84.15
Iteration: 29 | Loss: 0.33076882934021523 | Training accuracy: 89.26 | Test accuracy: 84.17
Iteration: 30 | Loss: 0.3159670405985449 | Training accuracy: 90.418 | Test accuracy: 84.85
Iteration: 31 | Loss: 0.3107607055960409 | Training accuracy: 90.59 | Test accuracy: 84.41
Iteration: 32 | Loss: 0.30280758413817266 | Training accuracy: 90.01 | Test accuracy: 84.83
Iteration: 33 | Loss: 0.29778098819963156 | Training accuracy: 90.29 | Test accuracy: 84.74
Iteration: 34 | Loss: 0.29081648681550987 | Training accuracy: 90.472 | Test accuracy: 84.33
Iteration: 35 | Loss: 0.28470436256864795 | Training accuracy: 91.436 | Test accuracy: 85.17
Iteration: 36 | Loss: 0.285105660367195 | Training accuracy: 91.61 | Test accuracy: 85.42
Iteration: 37 | Loss: 0.28272803274490643 | Training accuracy: 91.008 | Test accuracy: 84.85
Iteration: 38 | Loss: 0.2702687402134356 | Training accuracy: 90.818 | Test accuracy: 84.42
Iteration: 39 | Loss: 0.2715152678511027 | Training accuracy: 90.15 | Test accuracy: 83.35
Iteration: 40 | Loss: 0.2719577867013719 | Training accuracy: 91.416 | Test accuracy: 85.4
Iteration: 41 | Loss: 0.25797296597448455 | Training accuracy: 91.818 | Test accuracy: 85.24
Iteration: 42 | Loss: 0.25452168668856096 | Training accuracy: 91.736 | Test accuracy: 85.03
Iteration: 43 | Loss: 0.24933120802692746 | Training accuracy: 91.368 | Test accuracy: 84.49
Iteration: 44 | Loss: 0.25130039045725333 | Training accuracy: 91.742 | Test accuracy: 84.81
Iteration: 45 | Loss: 0.24412125080366573 | Training accuracy: 92.072 | Test accuracy: 84.78
Iteration: 46 | Loss: 0.2424764206723484 | Training accuracy: 92.424 | Test accuracy: 85.18
Iteration: 47 | Loss: 0.2395959493258725 | Training accuracy: 92.518 | Test accuracy: 84.65
Iteration: 48 | Loss: 0.23784974649967744 | Training accuracy: 92.52 | Test accuracy: 85.24
Iteration: 49 | Loss: 0.23318029448504338 | Training accuracy: 92.742 | Test accuracy: 85.67
Iteration: 50 | Loss: 0.23753726307083578 | Training accuracy: 92.432 | Test accuracy: 85.39
Iteration: 51 | Loss: 0.22657531231184444 | Training accuracy: 93.348 | Test accuracy: 85.95
Iteration: 52 | Loss: 0.227973025130189 | Training accuracy: 92.416 | Test accuracy: 84.78
Iteration: 53 | Loss: 0.22633623547108886 | Training accuracy: 93.074 | Test accuracy: 85.71
Iteration: 54 | Loss: 0.22294197974683683 | Training accuracy: 92.886 | Test accuracy: 84.64
Iteration: 55 | Loss: 0.22347278727213746 | Training accuracy: 92.448 | Test accuracy: 84.7
Iteration: 56 | Loss: 0.21852518987777592 | Training accuracy: 93.122 | Test accuracy: 85.13
Iteration: 57 | Loss: 0.21433081519801903 | Training accuracy: 92.992 | Test accuracy: 85.41
Iteration: 58 | Loss: 0.21331495532523032 | Training accuracy: 92.354 | Test accuracy: 84.25
Iteration: 59 | Loss: 0.21030235543961415 | Training accuracy: 93.92 | Test accuracy: 85.84
Iteration: 60 | Loss: 0.20713776151847352 | Training accuracy: 92.692 | Test accuracy: 84.67
Iteration: 61 | Loss: 0.2178632804118764 | Training accuracy: 93.416 | Test accuracy: 84.97
Iteration: 62 | Loss: 0.2039588896552925 | Training accuracy: 93.522 | Test accuracy: 85.83
Iteration: 63 | Loss: 0.20370201050015666 | Training accuracy: 93.096 | Test accuracy: 85.54
Iteration: 64 | Loss: 0.20205218223926355 | Training accuracy: 94.16 | Test accuracy: 86.0
Iteration: 65 | Loss: 0.20006531133981006 | Training accuracy: 94.056 | Test accuracy: 86.05
Iteration: 66 | Loss: 0.19496659277116551 | Training accuracy: 93.752 | Test accuracy: 85.5
Iteration: 67 | Loss: 0.1949586864284542 | Training accuracy: 93.678 | Test accuracy: 85.34
Iteration: 68 | Loss: 0.20207036389490526 | Training accuracy: 93.688 | Test accuracy: 85.99
Iteration: 69 | Loss: 0.19749456205788782 | Training accuracy: 93.718 | Test accuracy: 86.24
Iteration: 70 | Loss: 0.19878003090772484 | Training accuracy: 93.912 | Test accuracy: 85.48
Iteration: 71 | Loss: 0.18366212475940089 | Training accuracy: 94.25 | Test accuracy: 85.75
Iteration: 72 | Loss: 0.1867279666654594 | Training accuracy: 94.11 | Test accuracy: 85.86
Iteration: 73 | Loss: 0.18495595009278154 | Training accuracy: 94.648 | Test accuracy: 86.04
Iteration: 74 | Loss: 0.17820377150536193 | Training accuracy: 94.526 | Test accuracy: 86.3
Iteration: 75 | Loss: 0.19200940302494543 | Training accuracy: 94.072 | Test accuracy: 85.45
Iteration: 76 | Loss: 0.18282637531723817 | Training accuracy: 93.392 | Test accuracy: 84.85
Iteration: 77 | Loss: 0.18504546279721248 | Training accuracy: 94.084 | Test accuracy: 85.98
Iteration: 78 | Loss: 0.18702344807898602 | Training accuracy: 94.064 | Test accuracy: 85.52
Iteration: 79 | Loss: 0.17821401369083872 | Training accuracy: 94.31 | Test accuracy: 85.29
Iteration: 80 | Loss: 0.175794120811288 | Training accuracy: 93.994 | Test accuracy: 85.22
Iteration: 81 | Loss: 0.1746092195362996 | Training accuracy: 94.186 | Test accuracy: 85.7
Iteration: 82 | Loss: 0.1787860762242161 | Training accuracy: 94.204 | Test accuracy: 85.77
Iteration: 83 | Loss: 0.17812066104101099 | Training accuracy: 94.174 | Test accuracy: 85.76
Iteration: 84 | Loss: 0.17122835749784088 | Training accuracy: 94.222 | Test accuracy: 85.36
Iteration: 85 | Loss: 0.17069516592013562 | Training accuracy: 95.008 | Test accuracy: 86.35
Iteration: 86 | Loss: 0.17258487211164 | Training accuracy: 94.75 | Test accuracy: 85.79
Iteration: 87 | Loss: 0.16089441669185447 | Training accuracy: 94.57 | Test accuracy: 85.95
Iteration: 88 | Loss: 0.17082280339792255 | Training accuracy: 94.73 | Test accuracy: 86.19
Iteration: 89 | Loss: 0.17584532990937343 | Training accuracy: 94.032 | Test accuracy: 85.23
Iteration: 90 | Loss: 0.16880746919404516 | Training accuracy: 94.62 | Test accuracy: 85.67
Iteration: 91 | Loss: 0.1690068602790613 | Training accuracy: 94.47 | Test accuracy: 85.71
Iteration: 92 | Loss: 0.1622079633500265 | Training accuracy: 95.242 | Test accuracy: 86.6
Iteration: 93 | Loss: 0.1615516754329357 | Training accuracy: 95.064 | Test accuracy: 86.3
Iteration: 94 | Loss: 0.1573445744755323 | Training accuracy: 94.87 | Test accuracy: 85.38
Iteration: 95 | Loss: 0.1659430969134926 | Training accuracy: 95.184 | Test accuracy: 85.89
Iteration: 96 | Loss: 0.16448052963027565 | Training accuracy: 94.804 | Test accuracy: 86.01
Iteration: 97 | Loss: 0.15323888611458147 | Training accuracy: 95.414 | Test accuracy: 86.55
Iteration: 98 | Loss: 0.1498059177642588 | Training accuracy: 94.88 | Test accuracy: 86.44
Iteration: 99 | Loss: 0.15874704188855407 | Training accuracy: 95.09 | Test accuracy: 85.55
Iteration: 100 | Loss: 0.1442460831435745 | Training accuracy: 95.064 | Test accuracy: 86.07
Iteration: 101 | Loss: 0.15391417026824658 | Training accuracy: 95.442 | Test accuracy: 85.75
Iteration: 102 | Loss: 0.15361618343978892 | Training accuracy: 95.458 | Test accuracy: 86.36
Iteration: 103 | Loss: 0.154898410372417 | Training accuracy: 95.502 | Test accuracy: 86.42
Iteration: 104 | Loss: 0.1510682513227548 | Training accuracy: 95.786 | Test accuracy: 86.2
Iteration: 105 | Loss: 0.14729996350453334 | Training accuracy: 96.126 | Test accuracy: 86.46
Iteration: 106 | Loss: 0.14568942605191484 | Training accuracy: 95.45 | Test accuracy: 85.96
Iteration: 107 | Loss: 0.1472571891591982 | Training accuracy: 95.446 | Test accuracy: 85.84
Iteration: 108 | Loss: 0.14245105942573083 | Training accuracy: 95.57 | Test accuracy: 86.48
Iteration: 109 | Loss: 0.14519904187077756 | Training accuracy: 95.51 | Test accuracy: 85.98
Iteration: 110 | Loss: 0.14150068225801143 | Training accuracy: 95.984 | Test accuracy: 86.62
Iteration: 111 | Loss: 0.14071759497723008 | Training accuracy: 95.948 | Test accuracy: 86.56
Iteration: 112 | Loss: 0.14183210543430674 | Training accuracy: 95.508 | Test accuracy: 85.93
Iteration: 113 | Loss: 0.14333965663638565 | Training accuracy: 95.418 | Test accuracy: 85.92
Iteration: 114 | Loss: 0.1399291312736471 | Training accuracy: 95.908 | Test accuracy: 86.63
Iteration: 115 | Loss: 0.13983879047815148 | Training accuracy: 95.858 | Test accuracy: 86.32
Iteration: 116 | Loss: 0.13826481933179108 | Training accuracy: 95.968 | Test accuracy: 86.54
Iteration: 117 | Loss: 0.14148094859498236 | Training accuracy: 95.2 | Test accuracy: 85.66
Iteration: 118 | Loss: 0.13851209991918806 | Training accuracy: 95.49 | Test accuracy: 85.78
Iteration: 119 | Loss: 0.14304937044982716 | Training accuracy: 96.024 | Test accuracy: 86.61
Iteration: 120 | Loss: 0.13810971907108946 | Training accuracy: 95.222 | Test accuracy: 85.79
Iteration: 121 | Loss: 0.13403698613347909 | Training accuracy: 96.086 | Test accuracy: 86.55
Iteration: 122 | Loss: 0.12764506042003632 | Training accuracy: 95.734 | Test accuracy: 86.04
Iteration: 123 | Loss: 0.12683641138817647 | Training accuracy: 96.388 | Test accuracy: 86.6
Iteration: 124 | Loss: 0.1338829063831845 | Training accuracy: 95.934 | Test accuracy: 85.82
Iteration: 125 | Loss: 0.1320116404072403 | Training accuracy: 95.668 | Test accuracy: 86.14
Iteration: 126 | Loss: 0.13007436023877406 | Training accuracy: 96.434 | Test accuracy: 86.0
Iteration: 127 | Loss: 0.13334061515034007 | Training accuracy: 96.264 | Test accuracy: 85.94
Iteration: 128 | Loss: 0.13417834613253088 | Training accuracy: 96.564 | Test accuracy: 86.68
Iteration: 129 | Loss: 0.12013042624801626 | Training accuracy: 96.146 | Test accuracy: 86.33
Iteration: 130 | Loss: 0.1316771194186357 | Training accuracy: 95.806 | Test accuracy: 86.08
Iteration: 131 | Loss: 0.12848052066152968 | Training accuracy: 96.506 | Test accuracy: 86.76
Iteration: 132 | Loss: 0.12758093973254914 | Training accuracy: 96.582 | Test accuracy: 86.31
Iteration: 133 | Loss: 0.13133033172553762 | Training accuracy: 96.672 | Test accuracy: 86.77
Iteration: 134 | Loss: 0.1240956885716342 | Training accuracy: 95.87 | Test accuracy: 86.07
Iteration: 135 | Loss: 0.12715539784954333 | Training accuracy: 96.58 | Test accuracy: 86.64
Iteration: 136 | Loss: 0.1260793969759246 | Training accuracy: 96.332 | Test accuracy: 86.51
Iteration: 137 | Loss: 0.1175246570840516 | Training accuracy: 96.704 | Test accuracy: 86.89
Iteration: 138 | Loss: 0.11997720985994924 | Training accuracy: 96.204 | Test accuracy: 86.23
Iteration: 139 | Loss: 0.1163368569425 | Training accuracy: 95.79 | Test accuracy: 86.11
Iteration: 140 | Loss: 0.12127014464886902 | Training accuracy: 95.768 | Test accuracy: 86.51
Iteration: 141 | Loss: 0.12292893781610158 | Training accuracy: 96.356 | Test accuracy: 86.11
Iteration: 142 | Loss: 0.11902947239863598 | Training accuracy: 96.636 | Test accuracy: 86.77
Iteration: 143 | Loss: 0.11539621906512229 | Training accuracy: 96.85 | Test accuracy: 87.03
Iteration: 144 | Loss: 0.11802511052478609 | Training accuracy: 95.884 | Test accuracy: 85.99
Iteration: 145 | Loss: 0.1139385649157912 | Training accuracy: 95.984 | Test accuracy: 86.13
Iteration: 146 | Loss: 0.11114972221958058 | Training accuracy: 96.786 | Test accuracy: 86.73
Iteration: 147 | Loss: 0.12158365976398863 | Training accuracy: 96.538 | Test accuracy: 86.26
Iteration: 148 | Loss: 0.11897051417271194 | Training accuracy: 96.576 | Test accuracy: 86.27
Iteration: 149 | Loss: 0.11688917467508779 | Training accuracy: 96.004 | Test accuracy: 86.28
Iteration: 150 | Loss: 0.11634574279836986 | Training accuracy: 96.426 | Test accuracy: 86.06
==> Finished Training ...
